<svg xmlns="http://www.w3.org/2000/svg" viewBox="0 0 20 20" style="fill: #363636;">
    <path d="M19.4 20c-.2 0-.3-.1-.4-.2L.2 1C0 .8 0 .4.2.2c.2-.2.6-.2.8 0L19.8 19c.2.2.2.6 0 .8-.1.1-.2.2-.4.2z"/>
    <path d="M.6 20c-.2 0-.3-.1-.4-.2-.2-.2-.2-.6 0-.8L19 .2c.2-.2.6-.2.8 0 .2.2.2.6 0 .8L1 19.8c-.1.1-.2.2-.4.2z"/>
</svg>
